…
    ## [1] "There are 0 Reviews with NA"

So we are done with this feature.

``` r
apps_dataset %>%
  group_by(Category) %>%
  summarize(count = n(), max = max(Reviews), min = min(Reviews))
```

    ## # A tibble: 33 x 4
    ##    Category            count   max   min
    ##    <fct>               <int> <dbl> <dbl>
    ##  1 ART_AND_DESIGN         65  5924     1
    ##  2 AUTO_AND_VEHICLES      85  5988     1
    ##  3 BEAUTY                 53  5914     1
    ##  4 BOOKS_AND_REFERENCE   231  5947     1
    ##  5 BUSINESS              460  5954     1
    ##  6 COMICS                 60  5994     2
    ##  7 COMMUNICATION         387  5995     1
    ##  8 DATING                234  5940     1
    ##  9 EDUCATION             156  5979   166
    ## 10 ENTERTAINMENT         149  5989    85
    ## # … with 23 more rows
…
